Evaluación Sumativa N°1 – Reproducibilidad y comunicación de resultados
…
d) Distribución de variables

senda_final %>% #Revisando frecuencias
  count(
    OH_1,
    OH_9,
        SEXO,
        EDAD,
    REGION)

# A tibble: 5,811 × 6
   OH_1      OH_9             SEXO        EDAD REGION     n
   <dbl+lbl> <dbl+lbl>        <dbl+lbl>  <dbl>  <dbl> <int>
 1 1 [Sí]    0 [0 a 2 tragos] 1 [HOMBRE]    12      3     1
 2 1 [Sí]    0 [0 a 2 tragos] 1 [HOMBRE]    12      8     1
 3 1 [Sí]    0 [0 a 2 tragos] 1 [HOMBRE]    13     16     1
 4 1 [Sí]    0 [0 a 2 tragos] 1 [HOMBRE]    14      4     1
 5 1 [Sí]    0 [0 a 2 tragos] 1 [HOMBRE]    15      4     1
 6 1 [Sí]    0 [0 a 2 tragos] 1 [HOMBRE]    15      5     1
 7 1 [Sí]    0 [0 a 2 tragos] 1 [HOMBRE]    15      7     1
 8 1 [Sí]    0 [0 a 2 tragos] 1 [HOMBRE]    15      9     2
 9 1 [Sí]    0 [0 a 2 tragos] 1 [HOMBRE]    15     11     1
10 1 [Sí]    0 [0 a 2 tragos] 1 [HOMBRE]    15     13     2
# ℹ 5,801 more rows
…
